<?xml version="1.0" encoding="iso-8859-1"?>
<!-- Generator: Adobe Illustrator 23.0.3, SVG Export Plug-In . SVG Version: 6.00 Build 0)  -->
<svg version="1.1" id="Layer_1" xmlns="http://www.w3.org/2000/svg" xmlns:xlink="http://www.w3.org/1999/xlink" x="0px" y="0px"
	 viewBox="0 0 100 100" style="enable-background:new 0 0 100 100;" xml:space="preserve">
<g id="cart">
	<g>
		<path style="fill-rule:evenodd;clip-rule:evenodd;fill:#FFFFFF;" d="M26.565,47.87V24.435C26.565,11.492,37.057,1,50,1
			s23.435,10.492,23.435,23.435V47.87H26.565z M60.043,34.478H39.957V24.435c0-5.547,4.496-10.044,10.043-10.044
			s10.043,4.497,10.043,10.044V34.478z"/>
		<path style="fill-rule:evenodd;clip-rule:evenodd;fill:#FFFFFF;" d="M15.438,47.87l3.92,38.348h61.284l3.92-38.348
			C84.562,47.87,15.438,47.87,15.438,47.87z M1,35.087L7.533,99h84.934L99,35.087H1z"/>
	</g>
</g>
</svg>
