<?xml version="1.0" encoding="iso-8859-1"?>
<!-- Generator: Adobe Illustrator 23.0.3, SVG Export Plug-In . SVG Version: 6.00 Build 0)  -->
<svg version="1.1" id="Layer_1" xmlns="http://www.w3.org/2000/svg" xmlns:xlink="http://www.w3.org/1999/xlink" x="0px" y="0px"
	 viewBox="0 0 1056 162" style="enable-background:new 0 0 1056 162;" xml:space="preserve">
<path style="fill:#6FBB33;" d="M11,119.023h14.425V73.089h45.643V59.287H25.425V30.174h49.088V16.372H11V119.023z"/>
<path style="fill:#6FBB33;" d="M418.476,51.308c-1.077-3.666-2.799-7.764-5.168-11.861c-2.368-4.097-5.597-7.979-9.903-11.43
	c-4.091-3.45-9.258-6.254-15.502-8.41c-6.028-2.157-13.564-3.235-22.391-3.235h-32.725v102.651h32.725
	c8.612,0,16.147-1.078,22.391-3.235c6.028-2.157,11.411-4.96,15.502-8.41c4.09-3.45,7.32-7.332,9.903-11.43
	c2.369-4.097,4.091-7.979,5.168-11.861c1.076-3.666,1.722-7.117,2.153-10.136c0.215-3.019,0.43-5.176,0.43-6.254
	c0-1.294-0.215-3.45-0.43-6.47C420.198,58.424,419.552,54.974,418.476,51.308z M347.427,30.174h15.932
	c6.028,0,11.841,0.863,17.224,2.372c5.167,1.51,9.688,3.882,13.564,6.901c3.66,3.019,6.674,6.901,9.042,11.645
	c2.153,4.744,3.23,10.351,3.23,16.821c0,6.47-1.077,12.292-3.23,16.821c-2.153,4.744-5.167,8.626-9.042,11.645
	c-3.876,3.019-8.397,5.391-13.564,6.901c-5.383,1.51-10.98,2.372-17.224,2.372h-15.932V30.174z"/>
<path style="fill:#6FBB33;" d="M647.94,70.501c3.23-1.078,6.244-2.588,8.828-4.744c2.799-2.157,4.952-4.96,6.674-8.195
	c1.722-3.451,2.799-7.764,2.799-12.724c0-4.529-0.861-8.626-2.368-11.861c-1.508-3.235-3.445-6.038-5.814-8.195
	c-2.368-2.156-4.951-3.882-7.966-4.96c-2.799-1.078-5.597-1.941-8.396-2.372c-2.584-0.431-5.167-0.863-7.536-0.863
	c-2.153,0-4.09-0.216-5.382-0.216h-28.204v102.651H615V73.089h12.487l27.343,46.15h16.793l-28.634-47.444
	C644.711,71.364,646.218,70.932,647.94,70.501z M650.955,49.367c-0.431,1.725-1.292,3.019-2.799,4.529
	c-1.292,1.509-3.445,2.588-6.029,3.666c-2.583,1.078-6.243,1.509-10.549,1.509h-16.363V30.174h16.363
	c4.306,0,7.966,0.431,10.549,1.51c2.584,1.078,4.522,2.372,6.029,3.666c1.291,1.51,2.153,2.803,2.799,4.529
	c0.43,1.725,0.861,3.451,0.861,4.744S651.6,47.642,650.955,49.367z"/>
<path style="fill:#6FBB33;" d="M901.305,95.732l-22.606-79.36h-15.717l-22.606,79.36L818.2,16.372h-14.856l29.711,102.651h15.287
	l22.606-79.576l22.606,79.576h15.071l29.927-102.651h-15.071L901.305,95.732z"/>
<path style="fill:#6FBB33;" d="M1046.57,61.444c-0.22-3.019-1.08-6.47-2.15-10.136c-1.08-3.666-2.8-7.764-5.17-11.861
	s-5.6-7.979-9.9-11.43c-4.1-3.45-9.26-6.254-15.51-8.41c-6.024-2.157-13.56-3.235-22.387-3.235h-32.726v102.651h32.726
	c8.612,0,16.147-1.078,22.387-3.235c6.03-2.157,11.41-4.96,15.51-8.41c4.09-3.45,7.32-7.332,9.9-11.43
	c2.37-4.097,4.09-7.979,5.17-11.861c1.07-3.666,1.72-7.117,2.15-10.136c0.21-3.019,0.43-5.176,0.43-6.254
	C1047,66.619,1046.78,64.463,1046.57,61.444z M973.583,30.174h15.932c6.029,0,11.842,0.863,17.224,2.372
	c5.171,1.51,9.691,3.882,13.561,6.901c3.66,3.019,6.68,6.901,9.05,11.645c2.15,4.744,3.22,10.351,3.22,16.821
	c0,6.47-1.07,12.292-3.22,16.821c-2.16,4.744-5.17,8.626-9.05,11.645c-3.87,3.019-8.39,5.391-13.561,6.901
	c-5.382,1.51-10.98,2.372-17.224,2.372h-15.932V30.174z"/>
<path style="fill-rule:evenodd;clip-rule:evenodd;fill:#6FBB33;" d="M261.707,120.852c29.518,0,53.447-23.92,53.447-53.426
	C315.154,37.92,291.225,14,261.707,14S208.26,37.92,208.26,67.426C208.26,96.932,232.189,120.852,261.707,120.852z M261.707,106.531
	c21.606,0,39.121-17.508,39.121-39.105c0-21.597-17.515-39.105-39.121-39.105s-39.121,17.508-39.121,39.105
	C222.586,89.023,240.101,106.531,261.707,106.531z"/>
<path style="fill-rule:evenodd;clip-rule:evenodd;fill:#6FBB33;" d="M739.979,120.852c29.518,0,53.447-23.92,53.447-53.426
	C793.426,37.92,769.497,14,739.979,14s-53.448,23.92-53.448,53.426C686.531,96.932,710.461,120.852,739.979,120.852z
	 M739.979,106.531c21.606,0,39.121-17.508,39.121-39.105c0-21.597-17.515-39.105-39.121-39.105s-39.122,17.508-39.122,39.105
	C700.857,89.023,718.373,106.531,739.979,106.531z"/>
<path style="fill-rule:evenodd;clip-rule:evenodd;fill:#6FBB33;" d="M552.044,17.23c10.368,2.061,19.891,7.15,27.366,14.621
	l-10.13,10.126c-7.079-7.077-16.86-11.454-27.663-11.454c-21.606,0-39.121,17.508-39.121,39.105
	c0,21.597,17.515,39.105,39.121,39.105c10.803,0,20.584-4.377,27.663-11.454l10.13,10.126c-7.475,7.471-16.998,12.56-27.366,14.621
	c-10.368,2.062-21.114,1.004-30.88-3.04s-18.114-10.892-23.987-19.677c-5.873-8.786-9.007-19.115-9.007-29.682
	c0-10.567,3.134-20.896,9.007-29.682c5.873-8.786,14.22-15.634,23.987-19.677C530.93,16.226,541.676,15.168,552.044,17.23z"/>
<path style="fill:#F2A900;" d="M482.426,124.156c-5.706,11.498-12.84,17.338-26.215,17.338s-20.508-5.84-26.215-17.338h-16.763
	c6.42,18.068,23.183,30.844,42.978,30.844s36.559-12.958,42.979-30.844H482.426z"/>
<path style="fill-rule:evenodd;clip-rule:evenodd;fill:#6FBB33;" d="M141.588,120.852c29.518,0,53.447-23.92,53.447-53.426
	C195.035,37.92,171.106,14,141.588,14S88.141,37.92,88.141,67.426C88.141,96.932,112.07,120.852,141.588,120.852z M141.588,106.531
	c21.606,0,39.121-17.508,39.121-39.105c0-21.597-17.515-39.105-39.121-39.105s-39.121,17.508-39.121,39.105
	C102.467,89.023,119.982,106.531,141.588,106.531z"/>
</svg>
