<?xml version="1.0" encoding="iso-8859-1"?>
<!-- Generator: Adobe Illustrator 23.0.3, SVG Export Plug-In . SVG Version: 6.00 Build 0)  -->
<svg version="1.1" xmlns="http://www.w3.org/2000/svg" xmlns:xlink="http://www.w3.org/1999/xlink" x="0px" y="0px"
	 viewBox="0 0 100 100" style="enable-background:new 0 0 100 100;" xml:space="preserve">
<g id="Layer_12">
	<g>
		<path style="fill:#FFCC4A;" d="M83.751,49.387c4.599,11.283,4.455,19.494-3.379,27.328c-7.833,7.833-16.044,7.977-27.327,3.379
			l-9.818,9.817c16.239,8.719,34.88,7.725,46.473-3.868c11.593-11.593,9.925-13.629,1.332-29.742L83.751,49.387z"/>
		<path style="fill-rule:evenodd;clip-rule:evenodd;fill:#626E6A;" d="M43.228,46.016c-14.081,0-25.496,11.415-25.496,25.496
			s11.415,25.496,25.496,25.496h30.276C87.585,97.008,99,85.593,99,71.512S87.585,46.016,73.504,46.016H43.228z M73.504,50.797
			H43.228c-11.441,0-20.715,9.275-20.715,20.715s9.275,20.715,20.715,20.715h30.276c11.441,0,20.715-9.275,20.715-20.715
			S84.945,50.797,73.504,50.797z"/>
		<path style="fill:#FFFFFF;" d="M62.35,79.48c0-2.64,2.14-4.78,4.78-4.78c2.64,0,4.781,2.14,4.781,4.78
			c0,2.64-2.14,4.78-4.781,4.78C64.49,84.26,62.35,82.12,62.35,79.48z"/>
		<path style="fill-rule:evenodd;clip-rule:evenodd;fill:#626E6A;" d="M67.13,77.089c-1.32,0-2.39,1.07-2.39,2.39
			s1.07,2.39,2.39,2.39c1.32,0,2.39-1.07,2.39-2.39S68.45,77.089,67.13,77.089z M59.959,79.48c0-3.96,3.21-7.171,7.171-7.171
			c3.96,0,7.171,3.21,7.171,7.171c0,3.96-3.21,7.171-7.171,7.171C63.17,86.65,59.959,83.44,59.959,79.48z"/>
		<polygon style="fill:#FFFFFF;" points="46.415,20.52 40.041,12.553 35.26,20.52 35.26,95.415 46.415,95.415 		"/>
		<path style="fill-rule:evenodd;clip-rule:evenodd;fill:#626E6A;" d="M44.024,21.359v71.666H37.65V21.182l2.671-4.452
			L44.024,21.359z M39.76,8.375l-6.89,11.483v77.947h15.935V19.682L39.76,8.375z"/>
		<rect x="3.39" y="20.52" style="fill:#FFFFFF;" width="31.87" height="74.894"/>
		<path style="fill-rule:evenodd;clip-rule:evenodd;fill:#626E6A;" d="M5.78,22.911v70.114H32.87V22.911H5.78z M1,18.13h36.65
			v79.675H1V18.13z"/>
		<rect x="9.764" y="4.585" style="fill:#FFFFFF;" width="30.276" height="6.374"/>
		<path style="fill-rule:evenodd;clip-rule:evenodd;fill:#626E6A;" d="M12.154,8.569V6.976H37.65v1.593H12.154z M7.374,13.35h35.057
			V2.195H7.374V13.35z"/>
		<rect x="9.764" y="39.642" style="fill:#FFFFFF;" width="19.122" height="20.715"/>
		<path style="fill-rule:evenodd;clip-rule:evenodd;fill:#626E6A;" d="M12.154,57.967V42.033h14.341v15.935H12.154z M7.374,62.748
			h23.902V37.252H7.374V62.748z"/>
		<path style="fill:#FFFFFF;" d="M67.13,61.951c0-2.64,2.14-4.78,4.781-4.78c2.64,0,4.78,2.14,4.78,4.78
			c0,2.64-2.14,4.781-4.78,4.781C69.27,66.732,67.13,64.592,67.13,61.951z"/>
		<path style="fill-rule:evenodd;clip-rule:evenodd;fill:#626E6A;" d="M71.911,59.561c-1.32,0-2.39,1.07-2.39,2.39
			c0,1.32,1.07,2.39,2.39,2.39c1.32,0,2.39-1.07,2.39-2.39C74.301,60.631,73.231,59.561,71.911,59.561z M64.74,61.951
			c0-3.96,3.21-7.171,7.171-7.171c3.96,0,7.171,3.21,7.171,7.171c0,3.96-3.21,7.171-7.171,7.171
			C67.95,69.122,64.74,65.912,64.74,61.951z"/>
		<path style="fill-rule:evenodd;clip-rule:evenodd;fill:#626E6A;" d="M63.943,96.53c-1.545,0.314-3.143,0.478-4.781,0.478V46.016
			c1.637,0,3.236,0.165,4.781,0.478c10.91,2.215,19.122,11.861,19.122,23.424v3.187C83.065,84.67,74.853,94.316,63.943,96.53z
			 M78.285,73.106v-3.187c0-8.91-6.094-16.397-14.341-18.52v40.226C72.19,89.502,78.285,82.016,78.285,73.106z"/>
		
			<rect x="0.832" y="13.35" transform="matrix(0.5547 -0.8321 0.8321 0.5547 -10.1675 12.4818)" style="fill-rule:evenodd;clip-rule:evenodd;fill:#626E6A;" width="11.491" height="4.78"/>
	</g>
</g>
<g id="Layer_1">
</g>
</svg>
