<svg width="57" height="54" viewBox="0 0 57 54" fill="none" xmlns="http://www.w3.org/2000/svg">
<path d="M43.2149 30.8013C39.7626 38.7134 35.4472 42.7322 27.3559 42.7322C19.2647 42.7322 14.9493 38.7134 11.497 30.8013H1.35596C5.23977 43.2345 15.3808 52.0258 27.3559 52.0258C39.331 52.0258 49.4721 43.109 53.356 30.8013L43.2149 30.8013Z" fill="#FFCC4A"/>
<path fill-rule="evenodd" clip-rule="evenodd" d="M53.356 27.6177H1.35596C1.35596 28.6326 1.41533 29.6337 1.53078 30.6177C3.0154 43.2702 13.7739 53.0871 26.8253 53.0871H27.8866C40.938 53.0871 51.6965 43.2702 53.1811 30.6177C53.2966 29.6337 53.356 28.6326 53.356 27.6177ZM50.1574 30.6177H4.55449C6.02096 41.6088 15.433 50.0871 26.8253 50.0871H27.8866C39.2789 50.0871 48.691 41.6088 50.1574 30.6177Z" fill="#626E6A"/>
<path fill-rule="evenodd" clip-rule="evenodd" d="M33.0337 16.0809C31.9854 16.1921 31.2659 16.634 30.9668 17.054L28.5228 15.3142C29.4649 13.9909 31.0984 13.2694 32.7171 13.0976C34.3726 12.9219 36.2381 13.2885 37.8177 14.413C39.4368 15.5656 40.3321 17.3002 40.6737 18.9198C41.0018 20.4753 40.8821 22.2641 40.0089 23.4908L37.5649 21.751C37.7645 21.4707 37.9737 20.6552 37.7383 19.5389C37.5164 18.4866 36.9558 17.4819 36.0779 16.857C35.1607 16.204 34.0453 15.9735 33.0337 16.0809Z" fill="#626E6A"/>
<path fill-rule="evenodd" clip-rule="evenodd" d="M42.0757 22.5179C41.0274 22.6291 40.3079 23.071 40.0088 23.491L37.5648 21.7512C38.5069 20.4279 40.1404 19.7064 41.7591 19.5346C43.4146 19.3589 45.2801 19.7255 46.8597 20.85C48.4788 22.0026 49.3741 23.7372 49.7157 25.3568C50.0438 26.9123 49.9241 28.7011 49.0509 29.9278L46.6069 28.188C46.8065 27.9077 47.0157 27.0922 46.7803 25.9759C46.5584 24.9237 45.9977 23.9189 45.1199 23.294C44.2027 22.641 43.0872 22.4105 42.0757 22.5179Z" fill="#626E6A"/>
<path fill-rule="evenodd" clip-rule="evenodd" d="M22.0031 25.9494C21.8922 26.9721 22.1653 27.7447 22.4986 28.111L20.28 30.1303C19.2003 28.9441 18.8479 27.2189 19.0206 25.6261C19.1973 23.9964 19.9397 22.2776 21.352 20.9921C22.8002 19.674 24.6569 19.1751 26.286 19.1847C27.8497 19.1939 29.5488 19.6819 30.5505 20.7825L28.3319 22.8018C28.1121 22.5603 27.3832 22.1912 26.2684 22.1846C25.219 22.1784 24.1466 22.5051 23.3714 23.2107C22.5603 23.949 22.11 24.9635 22.0031 25.9494Z" fill="#626E6A"/>
<path fill-rule="evenodd" clip-rule="evenodd" d="M7.16344 24.4173C6.85497 25.8742 7.11403 27.1164 7.62766 27.8095L5.21735 29.5956C4.04358 28.0117 3.80124 25.8139 4.22851 23.7959C4.66345 21.7417 5.8306 19.6512 7.7878 18.2008C9.78394 16.7216 12.2059 16.3194 14.2921 16.5425C16.3131 16.7587 18.3624 17.607 19.4375 19.0578L17.0272 20.844C16.6437 20.3265 15.5478 19.694 13.9731 19.5255C12.4634 19.3641 10.839 19.6736 9.57397 20.6111C8.26998 21.5774 7.46424 22.9967 7.16344 24.4173Z" fill="#626E6A"/>
<path fill-rule="evenodd" clip-rule="evenodd" d="M18.974 15.6659C18.6655 17.1228 18.9246 18.3649 19.4382 19.058L17.0279 20.8442C15.8541 19.2603 15.6118 17.0624 16.0391 15.0445C16.474 12.9903 17.6411 10.8997 19.5984 9.44934C21.5945 7.9701 24.0165 7.56797 26.1026 7.79108C28.1237 8.00723 30.1729 8.85551 31.248 10.3063L28.8377 12.0925C28.4542 11.575 27.3584 10.9425 25.7836 10.7741C24.274 10.6126 22.6496 10.9222 21.3845 11.8597C20.0805 12.826 19.2748 14.2452 18.974 15.6659Z" fill="#626E6A"/>
<path fill-rule="evenodd" clip-rule="evenodd" d="M34.6621 14.4925L45.805 0.166016L48.173 2.00784L37.0302 16.3344L34.6621 14.4925Z" fill="#626E6A"/>
<path fill-rule="evenodd" clip-rule="evenodd" d="M38.7966 16.309L54.4159 7.06505L55.9438 9.64678L40.3246 18.8908L38.7966 16.309Z" fill="#626E6A"/>
</svg>
