<?xml version="1.0" encoding="iso-8859-1"?>
<!-- Generator: Adobe Illustrator 23.0.3, SVG Export Plug-In . SVG Version: 6.00 Build 0)  -->
<svg version="1.1" xmlns="http://www.w3.org/2000/svg" xmlns:xlink="http://www.w3.org/1999/xlink" x="0px" y="0px"
	 viewBox="0 0 100 100" style="enable-background:new 0 0 100 100;" xml:space="preserve">
<g id="Layer_14">
	<g>
		<path style="fill-rule:evenodd;clip-rule:evenodd;fill:#626E6A;" d="M57.93,14.653c0.339,1.092,0.944,2.086,1.761,2.893
			l-3.283,3.327c-1.363-1.345-2.374-3.005-2.942-4.833c-0.568-1.828-0.675-3.766-0.31-5.644c0.364-1.878,1.188-3.636,2.398-5.118
			c1.21-1.482,2.768-2.642,4.536-3.379c1.768-0.736,3.69-1.027,5.598-0.846c1.908,0.181,3.742,0.827,5.341,1.882
			c1.599,1.055,2.915,2.486,3.829,4.168c0.914,1.682,1.398,3.563,1.409,5.476l-4.674,0.027c-0.006-1.141-0.295-2.264-0.842-3.271
			c-0.547-1.006-1.335-1.865-2.296-2.498c-0.961-0.634-2.063-1.022-3.209-1.131c-1.146-0.108-2.3,0.066-3.359,0.507
			c-1.059,0.441-1.991,1.136-2.713,2.02c-0.722,0.885-1.213,1.933-1.43,3.052C57.528,12.404,57.591,13.561,57.93,14.653z"/>
		<path style="fill-rule:evenodd;clip-rule:evenodd;fill:#626E6A;" d="M75.647,44.565l-8.503-8.05l-3.214,3.394l10.787,10.213
			L87.964,44.1l-0.176-1.675c-0.186-1.764-0.295-4.985-0.408-8.359l-0.004-0.109c-0.082-2.466-0.168-5.008-0.294-6.944
			c0.49-0.256,1.014-0.546,1.527-0.854c1.008-0.605,2.328-1.484,3.092-2.488c1.16-1.523,1.926-3.309,2.233-5.201
			c0.307-1.891,0.145-3.829-0.472-5.643c-0.617-1.814-1.669-3.449-3.065-4.76c-1.396-1.31-3.093-2.256-4.941-2.753
			c-1.848-0.496-3.789-0.527-5.651-0.09c-1.862,0.437-3.587,1.329-5.021,2.596c-1.434,1.267-2.534,2.869-3.203,4.664l4.38,1.632
			c0.401-1.077,1.06-2.035,1.917-2.792c0.857-0.757,1.886-1.289,2.996-1.549c1.11-0.261,2.267-0.242,3.37,0.054
			c1.103,0.296,2.118,0.861,2.955,1.647c0.837,0.785,1.469,1.766,1.839,2.856c0.371,1.09,0.468,2.255,0.284,3.39
			c-0.184,1.136-0.644,2.207-1.338,3.118c-0.163,0.214-0.757,0.699-1.779,1.312c-0.925,0.555-1.917,1.051-2.55,1.34l-1.53,0.698
			l0.176,1.673c0.186,1.764,0.295,4.985,0.408,8.36l0.003,0.107c0.082,2.444,0.166,4.963,0.291,6.893L75.647,44.565z"/>
		<path style="fill-rule:evenodd;clip-rule:evenodd;fill:#626E6A;" d="M55.745,21.311c1.087-0.142,2.194-0.014,3.224,0.375
			l1.65-4.373c-1.747-0.659-3.629-0.879-5.48-0.637c-1.85,0.242-3.612,0.937-5.127,2.025c-1.515,1.088-2.737,2.534-3.557,4.21
			c-0.82,1.676-1.213,3.529-1.145,5.395c0.068,1.866,0.594,3.687,1.532,5.303c0.938,1.616,2.258,2.978,3.844,3.964
			c1.586,0.987,3.39,1.569,5.253,1.693c1.862,0.124,3.726-0.213,5.425-0.983l-1.929-4.257c-0.996,0.451-2.09,0.65-3.185,0.576
			c-1.095-0.073-2.159-0.416-3.095-0.998c-0.936-0.583-1.716-1.387-2.27-2.341c-0.554-0.955-0.864-2.029-0.904-3.128
			c-0.04-1.099,0.191-2.188,0.672-3.171c0.481-0.983,1.197-1.83,2.084-2.468C53.626,21.86,54.658,21.452,55.745,21.311z"/>
		<path style="fill-rule:evenodd;clip-rule:evenodd;fill:#626E6A;" d="M68.626,18.758c-0.419,0.778-0.639,1.649-0.64,2.535
			l-4.674-0.005c0.002-1.657,0.414-3.288,1.199-4.746c0.785-1.458,1.92-2.699,3.302-3.613c1.382-0.913,2.969-1.47,4.62-1.623
			c1.651-0.153,3.314,0.103,4.844,0.744c1.53,0.641,2.879,1.648,3.928,2.932c1.05,1.284,1.768,2.806,2.09,4.432
			c0.322,1.626,0.237,3.306-0.247,4.89l-4.47-1.366c0.259-0.846,0.304-1.744,0.132-2.616c-0.173-0.872-0.558-1.69-1.123-2.381
			c-0.565-0.691-1.292-1.234-2.116-1.579c-0.825-0.346-1.72-0.483-2.606-0.401s-1.737,0.381-2.475,0.869
			C69.651,17.318,69.046,17.98,68.626,18.758z"/>
		<path style="fill-rule:evenodd;clip-rule:evenodd;fill:#626E6A;" d="M58.589,31.01c-0.133-0.987-0.019-1.994,0.332-2.929
			l-4.375-1.643c-0.622,1.657-0.825,3.442-0.589,5.195c0.236,1.753,0.902,3.421,1.94,4.854c1.038,1.433,2.414,2.588,4.007,3.362
			c1.592,0.774,3.352,1.145,5.122,1.08c1.771-0.065,3.499-0.563,5.032-1.451c1.533-0.888,2.823-2.139,3.757-3.644
			c0.934-1.504,1.482-3.214,1.594-4.98l-4.664-0.297c-0.063,0.995-0.372,1.961-0.9,2.812c-0.528,0.851-1.26,1.56-2.13,2.065
			c-0.871,0.504-1.853,0.788-2.859,0.825c-1.006,0.037-2.005-0.174-2.907-0.613c-0.902-0.439-1.68-1.092-2.265-1.9
			C59.098,32.937,58.722,31.998,58.589,31.01z"/>
		<path style="fill:#FFCC4A;" d="M74.851,52.514c4.496,11.031,4.355,19.059-3.303,26.717c-7.658,7.658-15.686,7.799-26.717,3.303
			l-9.598,9.598c15.876,8.524,34.101,7.552,45.435-3.782c11.334-11.334,9.704-13.324,1.303-29.077L74.851,52.514z"/>
		<path style="fill-rule:evenodd;clip-rule:evenodd;fill:#626E6A;" d="M43.801,50.705c-13.336,0-24.148,10.811-24.148,24.148
			C19.653,88.189,30.464,99,43.801,99h21.811c13.336,0,24.148-10.811,24.148-24.148c0-13.336-10.811-24.148-24.148-24.148H43.801z
			 M65.611,55.378H43.801c-10.755,0-19.474,8.719-19.474,19.474c0,10.755,8.719,19.474,19.474,19.474h21.811
			c10.755,0,19.474-8.719,19.474-19.474C85.085,64.097,76.367,55.378,65.611,55.378z"/>
		<rect x="35.232" y="70.179" style="fill-rule:evenodd;clip-rule:evenodd;fill:#626E6A;" width="4.674" height="4.674"/>
		<rect x="47.695" y="79.526" style="fill-rule:evenodd;clip-rule:evenodd;fill:#626E6A;" width="4.674" height="4.674"/>
		<rect x="61.717" y="81.084" style="fill-rule:evenodd;clip-rule:evenodd;fill:#626E6A;" width="4.674" height="4.674"/>
		<rect x="52.369" y="70.179" style="fill-rule:evenodd;clip-rule:evenodd;fill:#626E6A;" width="4.674" height="4.674"/>
		<path style="fill:#FFFFFF;" d="M5.915,36.931c-0.126-11.032,9.777-19.314,20.577-17.208c10.808,2.107,17.157,13.572,13.186,23.811
			L23.458,85.356c-1.541,3.972-5.776,6.154-9.922,5.111c-4.13-1.039-7.063-4.763-7.112-9.03L5.915,36.931z"/>
		<path style="fill-rule:evenodd;clip-rule:evenodd;fill:#626E6A;" d="M26.493,19.722c-10.8-2.105-20.704,6.176-20.577,17.208
			l0.508,44.507c0.049,4.267,2.982,7.991,7.112,9.03c4.146,1.043,8.382-1.138,9.922-5.111l16.221-41.823
			C43.65,33.295,37.301,21.829,26.493,19.722z M19.111,83.604l16.221-41.823c2.912-7.508-1.743-15.914-9.668-17.459
			c-7.919-1.544-15.18,4.529-15.088,12.618l0.508,44.506c0.024,2.115,1.478,3.961,3.526,4.476
			C16.491,86.396,18.412,85.406,19.111,83.604z"/>
		<path style="fill-rule:evenodd;clip-rule:evenodd;fill:#626E6A;" d="M47.315,7.931c-0.671,6.988-5.931,12.837-13.298,13.997
			l-8.675,1.365c-0.314-1.593-0.386-3.168-0.239-4.69C25.773,11.614,31.033,5.764,38.4,4.605l8.675-1.365
			C47.389,4.834,47.461,6.409,47.315,7.931z M42.41,8.702l-3.105,0.488c-4.78,0.752-8.321,4.263-9.299,8.64l3.106-0.489
			C37.892,16.59,41.433,13.079,42.41,8.702z"/>
		
			<rect x="14.091" y="36.659" transform="matrix(0.3414 -0.9399 0.9399 0.3414 -28.0757 42.6965)" style="fill-rule:evenodd;clip-rule:evenodd;fill:#626E6A;" width="4.674" height="9.444"/>
		
			<rect x="24.325" y="49.981" transform="matrix(0.3413 -0.9399 0.9399 0.3413 -33.857 61.0917)" style="fill-rule:evenodd;clip-rule:evenodd;fill:#626E6A;" width="4.674" height="9.444"/>
		
			<rect x="11.79" y="61.441" transform="matrix(0.3413 -0.9399 0.9399 0.3413 -52.8851 56.8587)" style="fill-rule:evenodd;clip-rule:evenodd;fill:#626E6A;" width="4.674" height="9.444"/>
	</g>
</g>
<g id="Layer_1">
</g>
</svg>
