<?xml version="1.0" encoding="iso-8859-1"?>
<!-- Generator: Adobe Illustrator 23.0.3, SVG Export Plug-In . SVG Version: 6.00 Build 0)  -->
<svg version="1.1" xmlns="http://www.w3.org/2000/svg" xmlns:xlink="http://www.w3.org/1999/xlink" x="0px" y="0px"
	 viewBox="0 0 100 100" style="enable-background:new 0 0 100 100;" xml:space="preserve">
<g id="cat2">
	<g>
		<path style="fill:#FFCC4A;" d="M81.484,47.498c3.771,10.682,3.121,18.672-4.978,26.772c-8.099,8.099-16.09,8.748-26.772,4.978
			L39.583,89.399c15.243,7.468,33.424,5.346,45.411-6.641c11.987-11.987,13.994-30.282,6.641-45.411L81.484,47.498z"/>
		<path style="fill-rule:evenodd;clip-rule:evenodd;fill:#626E6A;" d="M48.154,44.305c0.643-1.175,1.087-2.474,1.285-3.852h-1.285
			V44.305z M48.154,17.993H13.763v-4.211h34.391c3.101,0,5.615,2.514,5.615,5.615c0,3.101-2.514,5.615-5.615,5.615H28.502
			c-6.977,0-12.633,5.656-12.633,12.633c0,6.977,5.656,12.633,12.633,12.633h9.577c2.143,0,4.148-0.587,5.864-1.609V36.241h7.267
			c1.413,0,2.558,1.145,2.558,2.558c0,8.665-7.024,15.69-15.69,15.69h-9.577c-9.303,0-16.845-7.541-16.845-16.845
			S19.199,20.8,28.502,20.8h19.652c0.775,0,1.404-0.628,1.404-1.404C49.558,18.622,48.93,17.993,48.154,17.993z"/>
		<path style="fill-rule:evenodd;clip-rule:evenodd;fill:#626E6A;" d="M39.732,26.706v-3.8h4.211v3.8
			c0,5.814-4.714,10.528-10.528,10.528h-1.404c-3.489,0-6.317,2.828-6.317,6.317v8.833h-4.211v-8.833
			c0-5.814,4.713-10.528,10.528-10.528h1.404C36.904,33.023,39.732,30.195,39.732,26.706z"/>
		<rect x="27.8" y="22.906" style="fill:#626E6A;" width="4.211" height="12.633"/>
		
			<rect x="18.044" y="28.728" transform="matrix(0.5 -0.866 0.866 0.5 -20.2745 34.9726)" style="fill:#626E6A;" width="4.211" height="12.633"/>
		<path style="fill:#626E6A;" d="M50.986,76.553c0.458,2.031-0.817,4.048-2.847,4.506c-2.031,0.458-4.048-0.817-4.506-2.848
			c-0.458-2.031,0.817-4.048,2.848-4.506C48.511,73.247,50.528,74.522,50.986,76.553z"/>
		<path style="fill-rule:evenodd;clip-rule:evenodd;fill:#626E6A;" d="M10.046,89.167c3.331,0,6.031-2.7,6.031-6.031
			c0-3.331-2.7-6.031-6.031-6.031s-6.031,2.7-6.031,6.031C4.015,86.466,6.716,89.167,10.046,89.167z M10.046,84.643
			c0.833,0,1.508-0.675,1.508-1.508s-0.675-1.508-1.508-1.508c-0.833,0-1.508,0.675-1.508,1.508S9.213,84.643,10.046,84.643z"/>
		<path style="fill-rule:evenodd;clip-rule:evenodd;fill:#626E6A;" d="M8.538,71.074c4.163,0,7.538-3.375,7.538-7.538
			s-3.375-7.538-7.538-7.538S1,59.372,1,63.536S4.375,71.074,8.538,71.074z M8.538,66.551c1.665,0,3.015-1.35,3.015-3.015
			c0-1.665-1.35-3.015-3.015-3.015c-1.665,0-3.015,1.35-3.015,3.015C5.523,65.201,6.873,66.551,8.538,66.551z"/>
		<path style="fill-rule:evenodd;clip-rule:evenodd;fill:#626E6A;" d="M63.879,75.956c-1.492-1.532-3.485-2.464-5.607-2.626
			l0.343-4.51c3.224,0.245,6.247,1.661,8.505,3.981c2.258,2.319,3.598,5.383,3.773,8.62c0.176,3.237-0.825,6.429-2.816,8.984
			c-1.992,2.554-4.841,4.297-8.019,4.899l-0.842-4.444c2.093-0.397,3.975-1.546,5.294-3.237c1.319-1.691,1.983-3.809,1.867-5.957
			C66.26,79.517,65.371,77.488,63.879,75.956z"/>
		<path style="fill:#FFFFFF;" d="M71.862,19.073C72.021,10.208,79.335,3.151,88.2,3.31l9.458,0.17
			c-0.159,8.864-7.474,15.922-16.338,15.762L71.862,19.073z"/>
		<path style="fill-rule:evenodd;clip-rule:evenodd;fill:#626E6A;" d="M96.931,7.99c-2.072,6.628-8.317,11.383-15.611,11.252
			l-9.458-0.169c0.028-1.57,0.281-3.084,0.727-4.511C74.661,7.934,80.906,3.179,88.2,3.31l9.458,0.17
			C97.63,5.05,97.377,6.563,96.931,7.99z M92.133,7.904l-4.015-0.072c-4.762-0.085-8.901,2.728-10.733,6.816l4.015,0.072
			C86.162,14.805,90.301,11.992,92.133,7.904z"/>
		
			<rect x="76.781" y="69.528" transform="matrix(0.4746 -0.8802 0.8802 0.4746 -22.637 107.8737)" style="fill-rule:evenodd;clip-rule:evenodd;fill:#626E6A;" width="4.523" height="6.743"/>
		
			<rect x="81.957" y="51.359" transform="matrix(0.4746 -0.8802 0.8802 0.4746 -3.9272 102.8804)" style="fill-rule:evenodd;clip-rule:evenodd;fill:#626E6A;" width="4.523" height="6.743"/>
		
			<rect x="70.854" y="56.954" transform="matrix(0.4747 -0.8802 0.8802 0.4747 -14.6858 96.0466)" style="fill-rule:evenodd;clip-rule:evenodd;fill:#626E6A;" width="4.523" height="6.743"/>
		<path style="fill-rule:evenodd;clip-rule:evenodd;fill:#626E6A;" d="M78.862,23.224C76.313,51.503,53.71,73.999,25.383,76.38
			c6.938,9.579,18.21,15.801,30.93,15.801c21.077,0,38.164-17.087,38.164-38.164C94.477,41.381,88.335,30.172,78.862,23.224z
			 M17.585,71.994c0.738,1.587,1.57,3.12,2.49,4.594c7.539,12.08,20.95,20.117,36.239,20.117C79.888,96.705,99,77.593,99,54.018
			c0-15.196-7.941-28.538-19.899-36.102c-0.016-0.01-0.031-0.02-0.047-0.03c-1.454-0.917-2.967-1.749-4.532-2.488
			c0.037,0.825,0.056,1.654,0.056,2.488c0,0.865-0.02,1.725-0.06,2.58C73.206,48.445,50.673,70.874,22.652,72.02
			c-0.747,0.03-1.499,0.046-2.254,0.046C19.455,72.066,18.517,72.042,17.585,71.994z"/>
		
			<rect x="89.686" y="65.071" transform="matrix(0.4746 -0.8802 0.8802 0.4746 -11.935 116.8904)" style="fill-rule:evenodd;clip-rule:evenodd;fill:#626E6A;" width="4.523" height="6.743"/>
		<path style="fill:#FFFFFF;" d="M78.126,19.319C78.28,10.729,71.441,3.64,62.85,3.486L52.205,3.295
			c-0.154,8.59,6.685,15.679,15.275,15.833L78.126,19.319z"/>
		<path style="fill-rule:evenodd;clip-rule:evenodd;fill:#626E6A;" d="M52.792,7.829c1.823,6.419,7.671,11.173,14.689,11.299
			l10.645,0.191c0.028-1.573-0.178-3.095-0.587-4.534C75.717,8.365,69.868,3.612,62.85,3.486L52.205,3.295
			C52.177,4.868,52.383,6.39,52.792,7.829z M57.613,7.916l5.156,0.093c4.481,0.08,8.291,2.821,9.949,6.69l-5.156-0.093
			C63.08,14.525,59.271,11.784,57.613,7.916z"/>
	</g>
</g>
<g id="Layer_1">
</g>
</svg>
