<?xml version="1.0" encoding="iso-8859-1"?>
<!-- Generator: Adobe Illustrator 23.0.3, SVG Export Plug-In . SVG Version: 6.00 Build 0)  -->
<svg version="1.1" xmlns="http://www.w3.org/2000/svg" xmlns:xlink="http://www.w3.org/1999/xlink" x="0px" y="0px"
	 viewBox="0 0 100 100" style="enable-background:new 0 0 100 100;" xml:space="preserve">
<g id="Layer_15">
	<g>
		<path style="fill:#FFCC4A;" d="M55.266,45.874c7.136-5.695,13.237-7.317,21.059-3.306c7.822,4.012,10.064,9.914,9.602,19.031
			l9.803,5.028c0.914-13.52,0.955-28.058-10.622-33.995c-11.576-5.938-21.95-2.7-31.614,6.896L55.266,45.874z"/>
		<path style="fill-rule:evenodd;clip-rule:evenodd;fill:#626E6A;" d="M40.317,67.39c-7.351,0-13.31,5.959-13.31,13.31v11.646
			h26.619V80.699C53.626,73.349,47.667,67.39,40.317,67.39z M48.635,87.354v-6.655c0-4.594-3.724-8.318-8.318-8.318
			s-8.318,3.724-8.318,8.318v6.655H48.635z"/>
		<path style="fill-rule:evenodd;clip-rule:evenodd;fill:#626E6A;" d="M75.254,74.045c-7.351,0-13.31,5.959-13.31,13.31V99h26.619
			V87.354C88.564,80.003,82.605,74.045,75.254,74.045z M83.573,94.009v-6.655c0-4.594-3.724-8.318-8.318-8.318
			c-4.594,0-8.318,3.724-8.318,8.318v6.655H83.573z"/>
		<path style="fill-rule:evenodd;clip-rule:evenodd;fill:#626E6A;" d="M52.853,37.115c5.171-5.622,12.461-8.822,20.101-8.822h2.243
			c7.735,0,15.097,3.324,20.212,9.127c3.037,3.444,2.81,8.035,0.578,11.198c0.047,0.298,0.071,0.602,0.071,0.912v30.338
			c0,3.216-2.607,5.823-5.823,5.823h-3.454c-1.493,0-1.295,0.197-2.378-0.832h1.664l-4.991-6.655
			c-3.414-1.707-13.366,0.422-14.141,4.159c-0.269,1.298-0.332,3.328-1.658,3.328h-7.945c-3.216,0-5.823-2.607-5.823-5.823V49.53
			c0-0.548,0.077-1.08,0.219-1.585C49.841,44.741,49.856,40.373,52.853,37.115z M72.954,33.284c-6.243,0-12.201,2.615-16.427,7.21
			c-1.536,1.669-1.38,4.003-0.058,5.529l1.259,1.453l-1.084,1.588c-0.09,0.132-0.143,0.289-0.143,0.466v30.338
			c0,0.459,0.373,0.832,0.832,0.832h6.313c4.953-0.832,12.44-4.991,14.896-5.722l3.595,1.797c0.257,0.129,0.495,0.295,0.704,0.494
			l3.227,6.757l0.141-3.556c0.155,0.147,0.36,0.229,0.573,0.229h3.454c0.459,0,0.832-0.372,0.832-0.832V49.53
			c0-0.138-0.032-0.261-0.086-0.369l-0.805-1.615l1.281-1.271c1.455-1.443,1.722-3.837,0.207-5.555
			c-4.168-4.728-10.166-7.436-16.468-7.436H72.954z"/>
		<path style="fill-rule:evenodd;clip-rule:evenodd;fill:#626E6A;" d="M25.413,33.284h49.841v-4.991H25.413
			c-9.456,0-18.108,5.318-22.377,13.755c-1.408,2.784-0.674,6.162,1.737,8.112v29.707H4.695v4.991h23.144v-4.991H9.763V47.685
			l-1.81-1.372c-0.62-0.47-0.815-1.316-0.464-2.011C10.909,37.544,17.839,33.284,25.413,33.284z"/>
		<path style="fill-rule:evenodd;clip-rule:evenodd;fill:#626E6A;" d="M34.582,13.641c2.2-2.691,5.275-4.535,8.666-5.175
			l0.925,4.905c-2.217,0.418-4.258,1.633-5.727,3.429c-1.469,1.797-2.246,4.03-2.208,6.27l-4.99,0.084
			C31.19,19.709,32.383,16.332,34.582,13.641z"/>
		<path style="fill-rule:evenodd;clip-rule:evenodd;fill:#626E6A;" d="M42.772,21.592c2.103-2.573,5.043-4.336,8.286-4.948
			l0.925,4.905c-2.069,0.39-3.975,1.524-5.347,3.202c-1.372,1.679-2.098,3.764-2.062,5.854l-4.991,0.084
			C39.528,27.394,40.669,24.165,42.772,21.592z"/>
		<path style="fill-rule:evenodd;clip-rule:evenodd;fill:#626E6A;" d="M72.041,84.156c1.792,1.115,3.565,2.198,4.992,3.047
			l2.554-4.288c-1.392-0.829-3.138-1.895-4.91-2.997c-1.772-1.103-3.438-2.159-4.687-2.973l-2.724,4.182
			C68.553,81.965,70.25,83.041,72.041,84.156z"/>
		<path style="fill-rule:evenodd;clip-rule:evenodd;fill:#626E6A;" d="M35.44,77.501c1.792,1.115,3.565,2.198,4.992,3.047
			l2.554-4.288c-1.392-0.829-3.138-1.895-4.91-2.997c-1.772-1.103-3.438-2.159-4.687-2.973l-2.724,4.182
			C31.951,75.31,33.648,76.386,35.44,77.501z"/>
		<path style="fill-rule:evenodd;clip-rule:evenodd;fill:#626E6A;" d="M26.665,6.097c-2.144-0.316-3.267,0.106-3.83,0.628
			c-0.438,0.405-0.832,1.128-0.926,2.45c-0.095,1.341,0.14,3.115,0.797,5.295c1.311,4.353,4.15,9.829,8.307,15.71l-4.076,2.881
			c-4.339-6.138-7.491-12.105-9.011-17.151c-0.759-2.519-1.149-4.933-0.996-7.086c0.154-2.17,0.878-4.246,2.513-5.76
			c2.133-1.976,5.067-2.327,7.948-1.904c2.909,0.428,6.195,1.695,9.62,3.547C43.886,8.423,51.83,14.775,59.3,22.842
			c2,2.159,3.871,4.34,5.6,6.51l-3.904,3.11c-1.651-2.072-3.441-4.159-5.358-6.229c-7.201-7.776-14.725-13.743-21-17.136
			C31.489,7.394,28.781,6.409,26.665,6.097z"/>
		<rect x="7.875" y="46.594" style="fill-rule:evenodd;clip-rule:evenodd;fill:#626E6A;" width="35.77" height="4.991"/>
	</g>
</g>
<g id="Layer_1">
</g>
</svg>
